…
``` r
# Set seed for reproducibility
xpectr::set_test_seed(3)

# Create data frame with random data and a grouping variable
df <- data.frame(
  "x" = runif(50),
  "y" = runif(50),
  "g" = rep(c(1, 2, 3, 4, 5), each = 10)
) 


cluster_groups(df, cols = c("x", "y"), group_col = "g")
#> # A tibble: 50 x 5
#>        x     y x_clustered y_clustered     g
#>    <dbl> <dbl>       <dbl>       <dbl> <dbl>
#>  1 0.168 0.229       0.335       0.420     1
#>  2 0.808 0.213       0.449       0.417     1
#>  3 0.385 0.877       0.374       0.540     1
#>  4 0.328 0.993       0.364       0.562     1
#>  5 0.602 0.844       0.413       0.534     1
#>  6 0.604 0.910       0.413       0.547     1
#>  7 0.125 0.471       0.328       0.465     1
#>  8 0.295 0.224       0.358       0.419     1
#>  9 0.578 0.128       0.408       0.401     1
#> 10 0.631 0.280       0.418       0.429     1
#> # … with 40 more rows
```

<img src="man/figures/README-unnamed-chunk-22-1.png" width="552" style="display: block; margin: auto;" />

### Dim values

``` r
# Add a column with 1s
df_clustered$o <- 1

# Dim the "o" column (uses last column in `cols` by default)
# based on the data point's distance to the most central point in the cluster
df_clustered %>% 
  dplyr::group_by(g) %>% 
  dim_values(cols = c("x_clustered", "y_clustered", "o"), origin_fn = most_centered)
#> # A tibble: 50 x 6
#>    x_clustered y_clustered     g     o o_dimmed .origin  
#>          <dbl>       <dbl> <dbl> <dbl>    <dbl> <list>   
#>  1       0.335       0.420     1     1    0.853 <dbl [3]>
#>  2       0.449       0.417     1     1    0.936 <dbl [3]>
#>  3       0.374       0.540     1     1    0.798 <dbl [3]>
#>  4       0.364       0.562     1     1    0.765 <dbl [3]>
#>  5       0.413       0.534     1     1    0.819 <dbl [3]>
#>  6       0.413       0.547     1     1    0.801 <dbl [3]>
#>  7       0.328       0.465     1     1    0.831 <dbl [3]>
#>  8       0.358       0.419     1     1    0.889 <dbl [3]>
#>  9       0.408       0.401     1     1    0.943 <dbl [3]>
#> 10       0.418       0.429     1     1    1     <dbl [3]>
#> # … with 40 more rows
```
…
<img src="man/figures/README-unnamed-chunk-28-1.png" width="552" style="display: block; margin: auto;" />

### Swirl values

2-dimensional swirling:

``` r
# Rotate values
swirl_2d(rep(1, 50), radius = 95)
#> # A tibble: 50 x 7
#>    Index Value Index_swirled Value_swirled .origin   .degrees .radius
#>    <int> <dbl>         <dbl>         <dbl> <list>       <dbl>   <dbl>
#>  1     1     1         0.952          1.05 <dbl [2]>     2.68      95
#>  2     2     1         1.92           1.15 <dbl [2]>     4.24      95
#>  3     3     1         2.88           1.31 <dbl [2]>     5.99      95
#>  4     4     1         3.83           1.53 <dbl [2]>     7.81      95
#>  5     5     1         4.76           1.82 <dbl [2]>     9.66      95
#>  6     6     1         5.68           2.18 <dbl [2]>    11.5       95
#>  7     7     1         6.58           2.59 <dbl [2]>    13.4       95
#>  8     8     1         7.45           3.07 <dbl [2]>    15.3       95
#>  9     9     1         8.30           3.61 <dbl [2]>    17.2       95
#> 10    10     1         9.13           4.21 <dbl [2]>    19.0       95
#> # … with 40 more rows
```
…
# Create a data frame
df <- data.frame(
  "x" = 1:50,
  "y" = 1:50,
  "z" = 1:50,
  "r1" = runif(50),
  "r2" = runif(50) * 35,
  "o" = 1,
  "g" = rep(1:5, each=10)
)

# They see me swiiirling
swirl_3d(df, x_radius = 45, x_col = "x", y_col = "y", z_col ="z", keep_original = FALSE)
#> # A tibble: 50 x 7
#>    x_swirled y_swirled z_swirled .origin   .degrees  .radius   .radius_str 
#>        <dbl>     <dbl>     <dbl> <list>    <list>    <list>    <chr>       
#>  1         1     0.872      1.11 <dbl [3]> <dbl [3]> <dbl [3]> x=45,y=0,z=0
#>  2         2     1.46       2.42 <dbl [3]> <dbl [3]> <dbl [3]> x=45,y=0,z=0
#>  3         3     1.74       3.87 <dbl [3]> <dbl [3]> <dbl [3]> x=45,y=0,z=0
#>  4         4     1.68       5.40 <dbl [3]> <dbl [3]> <dbl [3]> x=45,y=0,z=0
#>  5         5     1.27       6.96 <dbl [3]> <dbl [3]> <dbl [3]> x=45,y=0,z=0
#>  6         6     0.508      8.47 <dbl [3]> <dbl [3]> <dbl [3]> x=45,y=0,z=0
#>  7         7    -0.604      9.88 <dbl [3]> <dbl [3]> <dbl [3]> x=45,y=0,z=0
#>  8         8    -2.05      11.1  <dbl [3]> <dbl [3]> <dbl [3]> x=45,y=0,z=0
#>  9         9    -3.80      12.1  <dbl [3]> <dbl [3]> <dbl [3]> x=45,y=0,z=0
#> 10        10    -5.82      12.9  <dbl [3]> <dbl [3]> <dbl [3]> x=45,y=0,z=0
#> # … with 40 more rows
```

<img src="man/figures/README-unnamed-chunk-32-1.png" width="699.2" style="display: block; margin: auto;" />

## Generators

### Generate clusters

``` r
generate_clusters(num_rows = 50, num_cols = 5, num_clusters = 5, compactness = 1.6)
#> # A tibble: 50 x 6
#>       D1    D2    D3     D4    D5 .cluster
#>    <dbl> <dbl> <dbl>  <dbl> <dbl> <fct>   
#>  1 0.316 0.553 0.523 0.202  0.653 1       
#>  2 0.279 0.753 0.447 0.0774 0.788 1       
#>  3 0.301 0.516 0.530 0.0541 0.842 1       
#>  4 0.350 0.594 0.540 0.0701 0.922 1       
#>  5 0.239 0.497 0.677 0.102  0.621 1       
#>  6 0.264 0.632 0.670 0.0742 0.845 1       
#>  7 0.273 0.589 0.696 0.0681 0.885 1       
#>  8 0.273 0.592 0.559 0.0944 0.987 1       
#>  9 0.336 0.569 0.618 0.212  0.670 1       
#> 10 0.302 0.605 0.545 0.0601 0.938 1       
#> # … with 40 more rows
```
…
